MATH 408 - Deep Learning
…
xlm <- lm(mpg ~ wt, mtcars)
attributes(xlm)

#> $names
#>  [1] "coefficients"  "residuals"     "effects"       "rank"         
#>  [5] "fitted.values" "assign"        "qr"            "df.residual"  
#>  [9] "xlevels"       "call"          "terms"         "model"        
#> 
#> $class
#> [1] "lm"

sloop::s3_methods_generic("summary")

#> # A tibble: 37 × 4
#>    generic class                 visible source             
#>    <chr>   <chr>                 <lgl>   <chr>              
#>  1 summary aov                   TRUE    stats              
#>  2 summary aovlist               FALSE   registered S3method
#>  3 summary aspell                FALSE   registered S3method
#>  4 summary check_packages_in_dir FALSE   registered S3method
#>  5 summary connection            TRUE    base               
#>  6 summary data.frame            TRUE    base               
#>  7 summary Date                  TRUE    base               
#>  8 summary default               TRUE    base               
#>  9 summary ecdf                  FALSE   registered S3method
#> 10 summary factor                TRUE    base               
#> # ℹ 27 more rows
…
